{
  "reconnect": "Vous avez été déconnecté, veuillez vous reconnecter",
  "serverError": "Erreur serveur",
  "requestHeaderTooLargeTitle": "Une erreur est survenue",
  "needDisconnection": "Vous devez vous déconnecter",
  "retryLater": "Si le problème persiste attendez quelques temps que le support traite le problème de fond",
  "supportWarned": "Le support a été prévenu",
  "disconnect": "Se déconnecter"
}
